module github.com/coreos/ignition/v2

go 1.15

require (
	cloud.google.com/go v0.58.0
	cloud.google.com/go/storage v1.9.0
	github.com/aws/aws-sdk-go v1.30.28
	github.com/beevik/etree v1.1.1-0.20200718192613-4a2f8b9d084c
	github.com/coreos/go-semver v0.3.0
	github.com/coreos/go-systemd/v22 v22.0.0
	github.com/coreos/vcontext v0.0.0-20211021162308-f1dbbca7bef4
	github.com/google/renameio v0.1.0
	github.com/google/uuid v1.1.1
	github.com/pin/tftp v2.1.0+incompatible
	github.com/spf13/pflag v1.0.6-0.20210604193023-d5e0c0615ace
	github.com/stretchr/testify v1.7.0
	github.com/vincent-petithory/dataurl v1.0.0
	github.com/vmware/vmw-guestinfo v0.0.0-20220317130741-510905f0efa3
	go.opencensus.io v0.22.5 // indirect
	golang.org/x/net v0.0.0-20200602114024-627f9648deb9
	golang.org/x/oauth2 v0.0.0-20200107190931-bf48bf16ab8d
	golang.org/x/sys v0.0.0-20200610111108-226ff32320da
	golang.org/x/tools v0.0.0-20200610160956-3e83d1e96d0e // indirect
	google.golang.org/api v0.26.0
	google.golang.org/genproto v0.0.0-20200610104632-a5b850bcf112 // indirect
)
